point,time,dev,tree
1000,16097.035,90135.85730476948,BST
1047,9171.77841451767,52023.82364195392,BST
1096,3009.8640510948903,14407.961139767778,BST
1148,1562.9825783972126,6110.655645352043,BST
1202,1623.17387687188,10374.176712384615,BST
1258,1086.046104928458,1435.2870281585665,BST
1318,1093.0166919575113,5713.050010022686,BST
1380,1361.626811594203,9190.783421087628,BST
1445,1074.7792387543252,5613.120468771277,BST
1513,1019.1050892267019,5436.708532231182,BST
1584,834.0631313131313,1355.823232367915,BST
1659,1083.7281494876431,5183.913343854968,BST
1737,855.1502590673575,1352.5550161963363,BST
1819,1024.9065420560748,4965.051022045841,BST
1905,977.5564304461942,4960.393175625247,BST
1995,893.1699248120301,4691.267561975433,BST
2089,810.677836285304,1380.2403173869625,BST
2187,906.8975765889346,4471.970459138353,BST
2290,831.2681222707423,1337.2717653486372,BST
2398,834.580483736447,1339.8455797718357,BST
2511,895.5491835921944,1388.0194846884779,BST
2630,858.3471482889734,1394.150482308406,BST
2754,914.1550472040668,4127.382015563203,BST
2884,821.4434812760055,1245.911554871183,BST
3019,850.2063597217622,1278.500158776428,BST
3162,834.3462998102467,1274.4662629790407,BST
3311,857.2703110842646,1332.0340059074558,BST
3467,935.3331410441303,4057.104329552967,BST
3630,1053.0438016528926,4586.420838158337,BST
3801,862.6022099447514,1361.842155673555,BST
3981,845.7023360964582,1366.7272482392657,BST
4168,1004.0182341650672,1444.4322346422682,BST
4365,900.8586483390607,1426.4225305602185,BST
4570,931.0455142231948,3453.944392712525,BST
4786,889.9180944421229,1370.928992213298,BST
5011,889.4007184194771,1404.2695304891122,BST
5248,885.3041158536586,1346.2784541792707,BST
5495,937.049135577798,1422.525979155023,BST
5754,956.9230100799443,1407.300645019861,BST
6025,961.0048132780083,1347.1666109480234,BST
6309,897.6658741480425,1307.8678964496953,BST
6606,910.8103239479261,1320.3902165069996,BST
6918,940.3875397513732,1359.4135535586736,BST
7244,1000.1241027056875,1375.7114022033616,BST
7585,974.6854317732367,1410.4902127051955,BST
7943,1039.3095807629359,1404.0941366850764,BST
8317,991.3907659011663,1430.2113189940064,BST
8709,1001.4909863359743,1427.236250357629,BST
9120,3614.481030701754,73333.07629301847,BST
9549,3426.1826369253326,65890.08578870037,BST
10000,995.7422,1270.5808096847538,BST
10471,941.5224906885684,1115.6147649342136,BST
10964,965.4232032105072,1109.0867113545605,BST
11481,961.4083268008013,1125.3118837108893,BST
12022,1064.6501414074198,1140.5871257340889,BST
12589,1050.2495829692589,1128.486562534729,BST
13182,964.3426642391139,1040.9266081473772,BST
13803,972.9067594001305,1058.4101762595785,BST
14454,994.2229832572299,1055.1851203390477,BST
15135,981.6669309547407,1039.5005231812177,BST
15848,1020.8962645128723,1050.6051240449663,BST
16595,1036.724977402832,1094.8140587000416,BST
17378,1039.3266774082174,1099.904564134727,BST
18197,1044.9978567895807,1259.0556307953273,BST
19054,1079.307337042091,1390.2521815031905,BST
19952,1085.4981455493185,1426.6577907406709,BST
20892,3519.002106069309,65616.23264087288,BST
21877,1129.2499428623669,1273.9199299769678,BST
22908,1070.6351929456957,1143.702268095724,BST
23988,1112.385567783892,1163.051597972587,BST
25118,1088.9267855720998,1093.8054755211635,BST
26302,1119.0064253668922,1109.7669185059292,BST
27542,1108.312504538523,1116.6337863862714,BST
28840,1089.9414355062413,1087.9080810074768,BST
30199,1111.0545382297428,1136.1595501952831,BST
31622,1112.9590158750236,1284.1925165187558,BST
33113,2581.613535469453,54276.01884624086,BST
34673,1131.4114440631038,1111.7012142554454,BST
36307,1135.9568127358361,1152.9611916815995,BST
38018,1217.449103056447,1149.5713689301842,BST
39810,1153.4901029891987,1134.2621264414834,BST
41686,1166.4845031905195,1150.5215921773565,BST
43651,2367.7241758493506,47797.142182363306,BST
45708,1251.7902336571278,1214.685069919569,BST
47863,1255.7633244886447,1192.1034250244873,BST
50118,1217.556127539008,1167.8656156447244,BST
52480,1191.721855945122,1155.675457987492,BST
54954,2169.1577137242057,41431.383067041155,BST
57543,1292.6616617138488,1229.0753361709635,BST
60255,1231.644178906315,1173.4876494098746,BST
63095,1287.1332276725573,1196.5653010571307,BST
66069,2062.2540828527754,39364.1737077804,BST
69183,1271.0350953268867,1212.6145187698705,BST
72443,1342.5892908907692,1267.2485523946193,BST
75857,1389.2024730743371,1427.07239056394,BST
79432,2039.8285577600966,36929.03416922077,BST
83176,1328.4741632201597,1257.6739682954415,BST
87096,1543.4239230274638,17476.73045588782,BST
91201,1857.7384129559982,33052.97828402594,BST
95499,1283.5642676886669,1200.8238515069233,BST
1000,48360.449,321152.5368375027,AVL
1047,20393.851957975166,203847.14525608695,AVL
1096,7387.4771897810215,47233.00413408511,AVL
1148,8088.45905923345,53235.67292423438,AVL
1202,7465.900166389351,65911.8895501908,AVL
1258,10085.676470588236,92988.709776207,AVL
1318,3524.1540212443097,26369.352393868703,AVL
1380,4623.449275362319,54553.48142901328,AVL
1445,4144.187543252595,39317.975992306725,AVL
1513,4261.176470588235,48440.307359264974,AVL
1584,1840.1079545454545,17298.374183043965,AVL
1659,1751.9053646775167,8408.821027386075,AVL
1737,1340.9631548647092,3360.0084741341448,AVL
1819,4388.545904343046,60602.67513817071,AVL
1905,1304.625721784777,3102.2029295883017,AVL
1995,1283.053634085213,3043.758801504305,AVL
2089,1238.421254188607,2681.0667072991987,AVL
2187,1297.8152720621856,3265.705099748452,AVL
2290,1502.414847161572,10107.310470653032,AVL
2398,2020.8231859883235,26072.36495544481,AVL
2511,1909.7670250896058,29622.356346704535,AVL
2630,1598.4019011406845,8870.290773655497,AVL
2754,1413.31045751634,3427.821013888131,AVL
2884,1180.620665742025,2654.605058440833,AVL
3019,1521.2772441205698,7794.790850886146,AVL
3162,1238.3074003795066,2668.682696571483,AVL
3311,1503.163696768348,13772.07923658313,AVL
3467,1475.6054225555235,8429.032577544911,AVL
3630,1283.726170798898,2807.052171515982,AVL
3801,1314.134438305709,2897.211286604251,AVL
3981,1867.3692539562924,29560.638946854582,AVL
4168,1497.6991362763915,10376.580199906235,AVL
4365,1317.439175257732,3020.094497702307,AVL
4570,1282.0857768052517,2496.028695918386,AVL
4786,1564.2074801504389,12023.86547656495,AVL
5011,1360.9417281979645,2772.1840439939456,AVL
5248,1478.3319359756097,10086.55366518501,AVL
5495,1633.6109190172886,21206.197232736704,AVL
5754,1443.3027459158845,7498.266155055496,AVL
6025,1485.5654771784232,10248.814983323331,AVL
6309,1411.1573941987638,8725.349353869831,AVL
6606,1384.5172570390555,4112.19749297663,AVL
6918,1333.320468343452,2633.67362082719,AVL
7244,1350.6419105466593,2592.149734036673,AVL
7585,1436.5703361898484,10487.21026541618,AVL
7943,1391.372906962105,3507.0090489296977,AVL
8317,1326.5426235421426,2799.5937117876383,AVL
8709,1308.9750832472155,2436.039794012083,AVL
9120,1328.3709429824562,2879.7108010351853,AVL
9549,1419.9128704576397,3063.6985733798087,AVL
10000,1375.7407,2919.365564067558,AVL
10471,1472.0783115270747,5072.420441910091,AVL
10964,1336.4205581904414,3034.1281698949283,AVL
11481,1436.8251023430014,10328.585925040315,AVL
12022,1318.6499750457494,2794.831700150414,AVL
12589,1308.8623401382158,2297.5085124710513,AVL
13182,1375.984979517524,3987.8971616109197,AVL
13803,1486.0520176773166,9193.06755263768,AVL
14454,1368.9385637193857,2848.3604249914806,AVL
15135,1342.7887016848365,3246.6173690395613,AVL
15848,1403.9998738011107,3620.3359880619446,AVL
16595,1439.9238324796625,7206.090064994339,AVL
17378,1392.8205201979515,2823.3483251583425,AVL
18197,1369.0351156784086,2481.5101926030347,AVL
19054,1429.0923165739478,3675.8723951413817,AVL
19952,1445.1954691259023,2843.750822480836,AVL
20892,1414.3585104346162,2795.6182776643404,AVL
21877,1463.0685194496502,3869.521705305747,AVL
22908,1437.798018159595,2586.9406232825645,AVL
23988,1568.7540436885108,10711.61575840853,AVL
25118,1424.394816466279,2887.7670766618357,AVL
26302,1453.6533723671205,3469.276890602613,AVL
27542,1463.5325684409265,4333.7971894108905,AVL
28840,1464.7364424410541,3057.27873453975,AVL
30199,1531.2528560548362,7615.980465963031,AVL
31622,1513.584561381317,4930.495288924967,AVL
33113,1475.459728807417,2931.985017502814,AVL
34673,1455.7590344071757,2472.2751886977358,AVL
36307,1482.7617814746468,2382.7322248492433,AVL
38018,1554.818401809669,5656.357485362344,AVL
39810,1585.7752825923135,4313.0761821082015,AVL
41686,1550.6471717123254,4183.306981372882,AVL
43651,1593.0799523493163,3764.1952732052814,AVL
45708,1538.0981447449024,2804.794466528512,AVL
47863,1575.9205440528174,4298.775729186366,AVL
50118,1559.9937347859052,3362.494346140055,AVL
52480,1539.8437118902439,2838.5236251649835,AVL
54954,1575.6934890999746,2685.0478291861937,AVL
57543,1597.4470222268565,3130.364771586243,AVL
60255,1587.7336486598622,3364.492145589852,AVL
63095,1719.0390997701877,15630.543112667734,AVL
66069,1709.8360501899529,9908.633351015807,AVL
69183,1692.2081291646791,5003.274548200984,AVL
72443,1720.4388415719945,6247.113268977401,AVL
75857,1698.8790487364383,3765.4600193818633,AVL
79432,1796.6505186826469,11183.370158201838,AVL
83176,1796.9098417812831,12755.276449425774,AVL
87096,1766.6791815927252,2952.013233770409,AVL
91201,1888.4978563831537,8197.931932909623,AVL
95499,1777.1341061162943,3304.929568255641,AVL
1000,37387.076,180535.5204066676,RBT
1047,21476.805157593124,113843.5806893903,RBT
1096,15306.098540145986,103585.143094615,RBT
1148,13837.915505226481,102241.05696780737,RBT
1202,11136.227121464226,80176.49987315053,RBT
1258,7207.51987281399,48697.423651945435,RBT
1318,6650.46282245827,42066.35474799635,RBT
1380,10406.386231884058,110497.50855373184,RBT
1445,8094.872664359862,74175.98729343219,RBT
1513,9219.573033707866,97145.68704382215,RBT
1584,9021.958964646465,95466.86136879533,RBT
1659,8236.92887281495,103788.41142814816,RBT
1737,7031.375359815775,73586.99484797589,RBT
1819,5500.8609125893345,39089.36334271344,RBT
1905,5404.7223097112865,77453.6179447194,RBT
1995,7078.582957393483,88219.50325313606,RBT
2089,6550.404499760651,72665.80384347825,RBT
2187,7185.024234110654,78884.17298737452,RBT
2290,7112.93711790393,98437.15776090768,RBT
2398,2904.40658882402,6776.156580078269,RBT
2511,5197.218637992832,67467.54058775358,RBT
2630,6240.169201520913,89809.69955713076,RBT
2754,3588.1252723311545,33226.81957960127,RBT
2884,3299.4098474341195,24656.864530334213,RBT
3019,3301.562437893342,20918.259706574572,RBT
3162,2885.920303605313,11613.250462639913,RBT
3311,4415.950166112957,58161.53955914255,RBT
3467,2886.2809345255264,18925.48172463472,RBT
3630,4107.782369146005,57510.564160212605,RBT
3801,3356.8816101026046,44008.67117882853,RBT
3981,4234.462195428285,59287.218696749245,RBT
4168,3832.6264395393473,53427.16173546756,RBT
4365,3215.1189003436425,29642.859602589822,RBT
4570,3307.269146608315,33676.68420591965,RBT
4786,4762.245089845383,79003.31318936113,RBT
5011,2988.648972261026,25366.251959831043,RBT
5248,3175.985899390244,43986.18441857438,RBT
5495,2369.062238398544,13756.147090046881,RBT
5754,2959.393986791797,46094.47031526756,RBT
6025,3087.880165975104,58046.73100098414,RBT
6309,2186.840069741639,3433.637582132384,RBT
6606,2864.823947926128,45607.396413484916,RBT
6918,3075.8440300664934,50239.72094047431,RBT
7244,2275.539066813915,12329.835661911478,RBT
7585,3117.21713909031,53726.89897962375,RBT
7943,2202.9840110789373,3458.6094378351386,RBT
8317,2507.1793916075508,19786.45269288785,RBT
8709,2196.3389596968655,3374.968911887247,RBT
9120,2288.7161184210527,12229.64125556895,RBT
9549,2311.666876112682,11248.779968210436,RBT
10000,2619.9582,29914.880064380497,RBT
10471,2999.1848916053864,45035.11440952602,RBT
10964,2435.685972272893,21548.962817216878,RBT
11481,2511.40266527306,19402.930239876663,RBT
12022,2414.5311096323408,25662.139217698896,RBT
12589,2236.846929859401,3420.7770841670836,RBT
13182,2482.1628736155362,28766.056222165633,RBT
13803,2222.907194088242,3435.4757574152786,RBT
14454,2430.4478345094785,30896.18037937285,RBT
15135,2183.6431450280807,3419.2688143933287,RBT
15848,2244.0612064613833,3470.2767750456183,RBT
16595,2790.505332931606,36965.7065258889,RBT
17378,2395.6226838531475,9185.877900369194,RBT
18197,2157.6621970654505,3342.581002674426,RBT
19054,2317.3749868793952,12952.376570468612,RBT
19952,2406.1813352044906,19187.249806335272,RBT
20892,2308.361525942945,18545.695911431485,RBT
21877,2169.655848608127,3407.591190587364,RBT
22908,2232.50999650777,3431.4522838011785,RBT
23988,2165.889903284976,3358.736250912928,RBT
25118,2158.864161159328,3349.4835842044326,RBT
26302,2342.414417154589,7754.562754062023,RBT
27542,2194.771222133469,3383.44171179771,RBT
28840,2209.7668862690707,3387.409299909045,RBT
30199,2235.3248451935497,3369.290778357718,RBT
31622,2221.284738473215,3415.4147810518616,RBT
33113,2319.2445263189684,6163.100594890913,RBT
34673,2259.131860525481,3415.0729625384824,RBT
36307,2264.7474591676537,3413.447374716822,RBT
38018,2302.100031563996,3434.110286615641,RBT
39810,2339.439311730721,3443.9874495667677,RBT
41686,2356.151777575205,3476.48864725068,RBT
43651,2306.8196375798952,3406.135434872783,RBT
45708,2301.802725999825,3408.4997005218756,RBT
47863,2349.579320142908,4874.156001123217,RBT
50118,2324.891276587254,3432.8442708099637,RBT
52480,2359.8661585365853,4374.113322901432,RBT
54954,2409.2937547767224,12481.314977129077,RBT
57543,2419.0283092643763,4211.599098665895,RBT
60255,2436.573894282632,4256.566658892503,RBT
63095,2414.968254219827,4627.9519794613725,RBT
66069,2404.535879156639,4384.169045718723,RBT
69183,2477.9182458118325,4470.981679142171,RBT
72443,2432.2161285424404,4500.131790641264,RBT
75857,2489.844048670525,4462.688081023926,RBT
79432,2484.2889641454326,4951.02154117899,RBT
83176,2501.671347504088,4839.684620140023,RBT
87096,2551.655173601543,4711.310937680006,RBT
91201,2619.7079308340917,5279.602295628711,RBT
95499,2635.4855024659946,5467.49544424206,RBT
