id,length,time,stddev,type
0,1000,5.70025e+04,1.90007e+05,naive
100,1000,2.14721e+04,8.02116e+04,smart
1,1064,5.43861e+04,2.58301e+04,naive
101,1064,1.71514e+04,1.62238e+04,smart
2,1133,5.09669e+04,1.78401e+05,naive
102,1133,2.05912e+04,7.41673e+04,smart
3,1207,6.25325e+04,7.97548e+03,naive
103,1207,1.72444e+04,1.28120e+04,smart
4,1285,4.68377e+04,1.86853e+05,naive
104,1285,2.23438e+04,7.00999e+04,smart
5,1368,2.34485e+04,3.09078e+04,naive
105,1368,1.38613e+04,2.15608e+04,smart
6,1457,8.11040e+04,2.20177e+05,naive
106,1457,2.85102e+04,9.71065e+04,smart
7,1551,4.86414e+04,2.71466e+04,naive
107,1551,2.39120e+04,1.65173e+04,smart
8,1652,9.86843e+04,2.20947e+05,naive
108,1652,2.83568e+04,9.17008e+04,smart
9,1759,7.90645e+04,3.93165e+03,naive
109,1759,2.29737e+04,1.82969e+04,smart
10,1873,5.87057e+04,1.82747e+05,naive
110,1873,3.29875e+04,1.13501e+05,smart
11,1994,3.51946e+04,3.44288e+04,naive
111,1994,2.34718e+04,2.04164e+04,smart
12,2123,9.56735e+04,2.31895e+05,naive
112,2123,3.83575e+04,1.13260e+05,smart
13,2261,4.23844e+04,2.57187e+04,naive
113,2261,3.69548e+04,3.17076e+04,smart
14,2408,5.55387e+04,1.76293e+05,naive
114,2408,3.66761e+04,6.89400e+04,smart
15,2564,9.82297e+04,1.43723e+04,naive
115,2564,3.43827e+04,2.33284e+04,smart
16,2730,4.68393e+04,1.36599e+05,naive
116,2730,4.35699e+04,8.09527e+04,smart
17,2907,1.09937e+05,3.36519e+04,naive
117,2907,4.11462e+04,2.64444e+04,smart
18,3095,1.54199e+05,2.91909e+05,naive
118,3095,6.94854e+04,1.22100e+05,smart
19,3295,3.77595e+04,2.56750e+04,naive
119,3295,1.05239e+05,3.02076e+05,smart
20,3509,1.31220e+05,2.72200e+05,naive
120,3509,7.41906e+04,1.93590e+05,smart
21,3736,1.67962e+05,2.60965e+04,naive
121,3736,1.07763e+05,3.08501e+05,smart
22,3978,1.95178e+05,4.72703e+05,naive
122,3978,8.10550e+04,1.56776e+05,smart
23,4236,1.35104e+05,2.62608e+04,naive
123,4236,1.12086e+05,3.34420e+05,smart
24,4511,2.41473e+05,3.66437e+05,naive
124,4511,9.34243e+04,1.87463e+05,smart
25,4803,2.34947e+05,5.43875e+04,naive
125,4803,1.38152e+05,3.11244e+05,smart
26,5114,7.26630e+04,1.49193e+05,naive
126,5114,1.31430e+05,3.44164e+05,smart
27,5446,7.50430e+04,3.61637e+04,naive
127,5446,1.31709e+05,3.36638e+05,smart
28,5798,6.78972e+04,1.19255e+05,naive
128,5798,1.43608e+05,3.56464e+05,smart
29,6174,1.00106e+05,5.02918e+04,naive
129,6174,1.43696e+05,3.71216e+05,smart
30,6574,1.55346e+05,3.08445e+05,naive
130,6574,2.71009e+05,5.70287e+05,smart
31,7000,3.76459e+05,5.53570e+04,naive
131,7000,2.69823e+05,5.36296e+05,smart
32,7454,1.57147e+05,4.29242e+04,naive
132,7454,3.03351e+05,7.34114e+05,smart
33,7937,1.21042e+05,1.02145e+04,naive
133,7937,3.33839e+05,7.58068e+05,smart
34,8451,4.55165e+05,7.43314e+04,naive
134,8451,3.72073e+05,7.64297e+05,smart
35,8998,5.76503e+05,1.61963e+05,naive
135,8998,3.75150e+05,8.12314e+05,smart
36,9581,2.21648e+05,1.80019e+04,naive
136,9581,3.01699e+05,6.18585e+05,smart
37,10202,6.86102e+05,1.25027e+05,naive
137,10202,4.69995e+05,9.85370e+05,smart
38,10863,3.86673e+05,3.21777e+04,naive
138,10863,4.57212e+05,9.22544e+05,smart
39,11567,4.27927e+05,1.01814e+05,naive
139,11567,5.13828e+05,1.12014e+06,smart
40,12316,6.41806e+05,1.65606e+05,naive
140,12316,4.85147e+05,9.22616e+05,smart
41,13114,9.09841e+05,1.11350e+04,naive
141,13114,6.13371e+05,1.11320e+06,smart
42,13964,4.28930e+05,7.24318e+04,naive
142,13964,7.10655e+05,1.50494e+06,smart
43,14868,6.99061e+05,1.76876e+05,naive
143,14868,8.55204e+05,1.83235e+06,smart
44,15832,5.74956e+05,9.78614e+04,naive
144,15832,6.91224e+05,1.37932e+06,smart
45,16857,5.63876e+05,7.59572e+03,naive
145,16857,1.20205e+06,2.70220e+06,smart
46,17950,4.47774e+05,1.19088e+05,naive
146,17950,7.93816e+05,1.66933e+06,smart
47,19113,1.60471e+06,2.97296e+04,naive
147,19113,1.58296e+06,3.82410e+06,smart
48,20351,1.78329e+06,3.77970e+04,naive
148,20351,1.24169e+06,2.69935e+06,smart
49,21669,1.28715e+06,1.06436e+04,naive
149,21669,1.92841e+06,5.39284e+06,smart
50,23073,1.60561e+06,1.98354e+05,naive
150,23073,1.93522e+06,3.87533e+06,smart
51,24568,2.14347e+06,4.37627e+04,naive
151,24568,2.60040e+06,5.75681e+06,smart
52,26160,1.68459e+06,2.10385e+05,naive
152,26160,1.97763e+06,4.33124e+06,smart
53,27854,8.05782e+05,5.85240e+04,naive
153,27854,3.00265e+06,7.58880e+06,smart
54,29659,1.95494e+06,4.05276e+04,naive
154,29659,2.51598e+06,5.99128e+06,smart
55,31581,2.21805e+06,2.27276e+04,naive
155,31581,3.46379e+06,9.27135e+06,smart
56,33627,2.85730e+06,3.42254e+05,naive
156,33627,3.45805e+06,7.78545e+06,smart
57,35805,2.90928e+06,3.50522e+05,naive
157,35805,3.63065e+06,9.28515e+06,smart
58,38125,3.49012e+06,2.09328e+05,naive
158,38125,3.75873e+06,7.92434e+06,smart
59,40595,7.90790e+05,1.98137e+04,naive
159,40595,3.60163e+06,1.06899e+07,smart
60,43225,7.26150e+05,1.25526e+05,naive
160,43225,3.45272e+06,8.80565e+06,smart
61,46025,1.09623e+06,9.41392e+04,naive
161,46025,4.02700e+06,1.17669e+07,smart
62,49007,9.45828e+05,1.24497e+04,naive
162,49007,5.94169e+06,1.28492e+07,smart
63,52182,3.64897e+06,1.44760e+05,naive
163,52182,6.46189e+06,1.43271e+07,smart
64,55563,4.77055e+06,5.21643e+05,naive
164,55563,6.47612e+06,1.44363e+07,smart
65,59163,4.44362e+06,4.53459e+05,naive
165,59163,7.91569e+06,1.77789e+07,smart
66,62996,1.12034e+06,9.33165e+04,naive
166,62996,5.22504e+06,1.35164e+07,smart
67,67077,4.95231e+06,6.67561e+04,naive
167,67077,7.23519e+06,1.67839e+07,smart
68,71422,1.26031e+06,4.25749e+04,naive
168,71422,6.75732e+06,1.58231e+07,smart
69,76050,6.93804e+06,7.13322e+04,naive
169,76050,9.52883e+06,1.88348e+07,smart
70,80977,1.54041e+06,1.11799e+05,naive
170,80977,9.15568e+06,1.90446e+07,smart
71,86223,2.40654e+06,5.51666e+05,naive
171,86223,9.77114e+06,2.04459e+07,smart
72,91809,7.36021e+06,1.79407e+05,naive
172,91809,1.06168e+07,2.12470e+07,smart
73,97757,3.07200e+06,1.45330e+06,naive
173,97757,1.06659e+07,2.13092e+07,smart
74,104090,7.32117e+06,1.40602e+05,naive
174,104090,1.34901e+07,2.27368e+07,smart
75,110834,7.08471e+06,1.38131e+06,naive
175,110834,1.36742e+07,2.32994e+07,smart
76,118014,9.33232e+06,1.36288e+06,naive
176,118014,1.41336e+07,2.35848e+07,smart
77,125660,8.63770e+06,2.21657e+06,naive
177,125660,1.36346e+07,2.28131e+07,smart
78,133801,1.04363e+07,1.69888e+06,naive
178,133801,1.59687e+07,2.67398e+07,smart
79,142470,9.24084e+06,2.40757e+06,naive
179,142470,1.66916e+07,2.69127e+07,smart
80,151700,9.48290e+06,1.89674e+06,naive
180,151700,2.17686e+07,3.43942e+07,smart
81,161528,3.58621e+06,1.12979e+06,naive
181,161528,1.55392e+07,2.60036e+07,smart
82,171992,1.54766e+07,2.14472e+06,naive
182,171992,2.96372e+07,4.00405e+07,smart
83,183135,9.04734e+06,2.26049e+06,naive
183,183135,1.83258e+07,2.28061e+07,smart
84,195000,9.05744e+06,2.07548e+05,naive
184,195000,2.82554e+07,3.41952e+07,smart
85,207633,6.79777e+06,1.96164e+06,naive
185,207633,2.17689e+07,2.75275e+07,smart
86,221085,1.04454e+07,2.12415e+06,naive
186,221085,2.83606e+07,3.43169e+07,smart
87,235408,1.09039e+07,3.13464e+06,naive
187,235408,1.99232e+07,2.52799e+07,smart
88,250659,1.19309e+07,2.51755e+06,naive
188,250659,3.30816e+07,4.53457e+07,smart
89,266898,1.07411e+07,1.94849e+05,naive
189,266898,2.21536e+07,2.03274e+07,smart
90,284190,4.95648e+06,1.64776e+05,naive
190,284190,3.34147e+07,4.42143e+07,smart
91,302601,9.98324e+06,9.83406e+05,naive
191,302601,2.19902e+07,2.63548e+07,smart
92,322206,2.13147e+07,5.91580e+06,naive
192,322206,4.51425e+07,4.97371e+07,smart
93,343080,1.57197e+07,1.52690e+06,naive
193,343080,2.26460e+07,2.10916e+07,smart
94,365307,1.02485e+07,3.20339e+06,naive
194,365307,4.34473e+07,4.37765e+07,smart
95,388974,1.12014e+07,1.94525e+05,naive
195,388974,2.68620e+07,1.94169e+07,smart
96,414174,1.76536e+07,5.19515e+06,naive
196,414174,4.70859e+07,5.77632e+07,smart
97,441006,9.86024e+06,1.49400e+06,naive
197,441006,2.58898e+07,2.08886e+07,smart
98,469577,1.57648e+07,4.17203e+06,naive
198,469577,5.10440e+07,5.13625e+07,smart
