id,length,time,stddev,type
0,1000,6.83095e+04,2.17230e+05,naive
100,1000,2.23844e+04,1.26519e+05,smart
1,1064,6.00419e+04,2.00199e+04,naive
101,1064,1.61330e+04,1.97466e+04,smart
2,1133,7.50283e+04,1.92702e+05,naive
102,1133,2.44812e+04,9.59213e+04,smart
3,1207,6.79367e+04,3.18101e+04,naive
103,1207,1.76927e+04,2.11324e+04,smart
4,1285,8.19583e+04,2.16957e+05,naive
104,1285,2.71878e+04,1.00151e+05,smart
5,1368,7.47174e+04,1.58439e+04,naive
105,1368,2.09882e+04,2.43700e+04,smart
6,1457,8.77075e+04,2.10381e+05,naive
106,1457,2.71521e+04,1.06275e+05,smart
7,1551,8.53095e+04,1.79928e+04,naive
107,1551,2.48239e+04,2.35081e+04,smart
8,1652,1.04747e+05,2.57197e+05,naive
108,1652,3.13022e+04,1.19260e+05,smart
9,1759,9.64803e+04,5.16443e+03,naive
109,1759,2.83924e+04,2.24251e+04,smart
10,1873,1.14192e+05,2.62114e+05,naive
110,1873,3.36707e+04,1.30281e+05,smart
11,1994,1.02334e+05,3.23325e+03,naive
111,1994,3.07662e+04,4.00873e+04,smart
12,2123,1.37384e+05,3.53883e+05,naive
112,2123,4.06441e+04,1.30149e+05,smart
13,2261,1.25129e+05,4.11122e+04,naive
113,2261,3.75003e+04,2.25161e+04,smart
14,2408,1.38510e+05,2.78475e+05,naive
114,2408,6.19782e+04,1.20040e+05,smart
15,2564,1.41298e+05,3.01901e+04,naive
115,2564,9.66297e+04,3.27702e+05,smart
16,2730,1.61567e+05,3.23797e+05,naive
116,2730,5.58736e+04,1.43797e+05,smart
17,2907,1.54349e+05,1.58632e+04,naive
117,2907,9.97483e+04,3.19707e+05,smart
18,3095,1.78798e+05,3.21115e+05,naive
118,3095,6.55901e+04,1.59865e+05,smart
19,3295,1.74305e+05,5.19758e+03,naive
119,3295,1.01893e+05,3.29244e+05,smart
20,3509,2.10913e+05,4.60680e+05,naive
120,3509,7.17140e+04,1.62183e+05,smart
21,3736,1.96948e+05,2.75594e+04,naive
121,3736,1.09687e+05,3.59791e+05,smart
22,3978,2.27302e+05,3.49903e+05,naive
122,3978,8.39463e+04,1.84898e+05,smart
23,4236,2.41542e+05,4.95466e+04,naive
123,4236,1.21723e+05,3.32139e+05,smart
24,4511,2.66943e+05,3.61090e+05,naive
124,4511,1.56118e+05,3.90518e+05,smart
25,4803,2.61083e+05,3.86000e+04,naive
125,4803,1.02736e+05,2.99482e+04,smart
26,5114,2.86708e+05,3.31475e+05,naive
126,5114,1.63986e+05,3.95949e+05,smart
27,5446,2.92678e+05,3.15072e+04,naive
127,5446,1.66273e+05,3.64084e+05,smart
28,5798,3.63755e+05,3.71779e+05,naive
128,5798,1.91472e+05,4.14491e+05,smart
29,6174,3.56581e+05,7.39843e+04,naive
129,6174,2.16181e+05,4.15240e+05,smart
30,6574,3.76269e+05,4.06684e+05,naive
130,6574,2.24626e+05,4.82156e+05,smart
31,7000,4.14045e+05,9.42403e+04,naive
131,7000,3.12717e+05,5.86531e+05,smart
32,7454,4.10971e+05,5.21781e+04,naive
132,7454,3.06609e+05,5.06330e+05,smart
33,7937,7.54481e+05,3.77147e+04,naive
133,7937,3.07043e+05,6.39802e+05,smart
34,8451,6.21988e+05,1.58908e+05,naive
134,8451,3.45515e+05,6.15073e+05,smart
35,8998,8.30064e+05,5.26419e+04,naive
135,8998,5.16204e+05,9.25894e+05,smart
36,9581,5.51412e+05,1.21567e+05,naive
136,9581,3.80551e+05,7.40316e+05,smart
37,10202,9.06264e+05,1.48174e+05,naive
137,10202,4.10626e+05,8.35536e+05,smart
38,10863,8.84341e+05,1.57949e+05,naive
138,10863,5.46794e+05,9.28992e+05,smart
39,11567,1.06700e+06,1.63881e+04,naive
139,11567,7.10679e+05,1.46905e+06,smart
40,12316,1.16640e+06,1.00203e+05,naive
140,12316,6.91806e+05,1.33344e+06,smart
41,13114,1.27967e+06,7.07748e+04,naive
141,13114,9.11168e+05,1.85113e+06,smart
42,13964,1.09170e+06,2.09038e+05,naive
142,13964,5.96584e+05,1.09572e+06,smart
43,14868,1.39939e+06,1.10686e+04,naive
143,14868,1.09999e+06,2.15007e+06,smart
44,15832,1.46484e+06,7.01830e+04,naive
144,15832,1.08677e+06,2.04192e+06,smart
45,16857,1.55950e+06,7.39329e+04,naive
145,16857,1.33028e+06,2.88464e+06,smart
46,17950,1.61285e+06,6.61741e+04,naive
146,17950,1.19688e+06,2.03311e+06,smart
47,19113,1.72726e+06,9.22448e+04,naive
147,19113,1.95966e+06,3.94849e+06,smart
48,20351,1.86192e+06,1.73599e+05,naive
148,20351,1.74145e+06,3.86735e+06,smart
49,21669,2.01456e+06,3.75911e+04,naive
149,21669,1.80645e+06,4.05131e+06,smart
50,23073,2.19821e+06,2.84983e+05,naive
150,23073,1.84537e+06,3.71095e+06,smart
51,24568,2.40808e+06,4.73875e+05,naive
151,24568,1.99760e+06,4.42348e+06,smart
52,26160,2.25046e+06,3.51391e+05,naive
152,26160,2.00403e+06,3.94776e+06,smart
53,27854,2.57244e+06,9.92313e+04,naive
153,27854,2.69182e+06,6.11998e+06,smart
54,29659,2.66950e+06,3.73265e+05,naive
154,29659,2.69860e+06,6.11652e+06,smart
55,31581,2.98710e+06,1.90555e+05,naive
155,31581,3.52601e+06,8.07576e+06,smart
56,33627,3.13697e+06,4.13312e+04,naive
156,33627,2.84793e+06,6.29424e+06,smart
57,35805,3.32956e+06,6.26015e+04,naive
157,35805,3.42494e+06,7.85728e+06,smart
58,38125,3.49665e+06,1.38208e+05,naive
158,38125,3.01117e+06,6.74559e+06,smart
59,40595,3.68496e+06,1.00678e+05,naive
159,40595,4.03903e+06,9.49724e+06,smart
60,43225,4.11496e+06,1.94124e+05,naive
160,43225,4.42283e+06,1.00278e+07,smart
61,46025,4.35471e+06,2.58762e+05,naive
161,46025,4.92024e+06,1.09555e+07,smart
62,49007,4.48534e+06,2.34848e+05,naive
162,49007,4.78634e+06,9.55788e+06,smart
63,52182,4.75999e+06,1.12236e+05,naive
163,52182,5.59576e+06,1.11162e+07,smart
64,55563,5.18216e+06,9.33104e+04,naive
164,55563,5.70854e+06,1.20376e+07,smart
65,59163,5.51197e+06,3.42884e+04,naive
165,59163,6.97186e+06,1.49319e+07,smart
66,62996,5.90371e+06,4.45419e+05,naive
166,62996,6.31800e+06,1.26367e+07,smart
67,67077,6.18819e+06,2.40168e+05,naive
167,67077,7.62565e+06,1.54069e+07,smart
68,71422,6.82623e+06,1.83595e+06,naive
168,71422,7.28445e+06,1.40077e+07,smart
69,76050,7.15046e+06,4.00095e+05,naive
169,76050,8.95118e+06,1.91259e+07,smart
70,80977,7.36089e+06,2.18136e+05,naive
170,80977,9.62150e+06,1.67504e+07,smart
71,86223,7.97100e+06,1.82183e+06,naive
171,86223,1.05362e+07,1.98695e+07,smart
72,91809,8.77341e+06,1.02756e+06,naive
172,91809,9.64749e+06,1.70365e+07,smart
73,97757,9.36038e+06,3.41245e+05,naive
173,97757,1.24135e+07,2.24969e+07,smart
74,104090,9.85257e+06,6.41282e+05,naive
174,104090,1.13645e+07,2.05306e+07,smart
75,110834,9.35092e+06,2.02153e+06,naive
175,110834,1.19179e+07,2.28069e+07,smart
76,118014,1.09176e+07,1.67347e+05,naive
176,118014,1.53552e+07,2.70960e+07,smart
77,125660,1.14653e+07,3.66436e+05,naive
177,125660,1.38169e+07,2.36740e+07,smart
78,133801,1.21902e+07,1.19751e+06,naive
178,133801,1.97978e+07,3.08715e+07,smart
79,142470,9.50909e+06,2.97317e+06,naive
179,142470,1.55499e+07,2.01869e+07,smart
80,151700,1.37142e+07,1.73057e+06,naive
180,151700,2.13411e+07,3.23845e+07,smart
81,161528,1.07930e+07,3.21203e+06,naive
181,161528,1.47899e+07,2.27872e+07,smart
82,171992,1.59580e+07,1.20297e+06,naive
182,171992,2.49761e+07,3.77527e+07,smart
83,183135,1.22248e+07,4.01139e+06,naive
183,183135,1.59174e+07,1.94793e+07,smart
84,195000,1.76742e+07,1.27362e+06,naive
184,195000,2.62097e+07,3.84525e+07,smart
85,207633,1.39910e+07,4.11521e+06,naive
185,207633,1.74686e+07,2.28790e+07,smart
86,221085,2.02594e+07,2.16983e+06,naive
186,221085,3.09173e+07,4.03241e+07,smart
87,235408,1.27954e+07,1.45739e+06,naive
187,235408,1.93855e+07,2.06960e+07,smart
88,250659,2.30018e+07,1.64014e+06,naive
188,250659,3.39770e+07,4.09978e+07,smart
89,266898,1.46810e+07,3.15694e+06,naive
189,266898,2.09983e+07,2.18736e+07,smart
90,284190,2.18421e+07,5.51984e+06,naive
190,284190,3.51657e+07,3.78960e+07,smart
91,302601,1.58004e+07,1.74794e+06,naive
191,302601,2.17259e+07,1.99095e+07,smart
92,322206,2.16979e+07,6.40250e+06,naive
192,322206,4.07104e+07,5.13360e+07,smart
93,343080,1.82885e+07,3.42140e+06,naive
193,343080,2.23670e+07,1.94116e+07,smart
94,365307,2.56213e+07,7.18697e+06,naive
194,365307,4.22735e+07,4.85350e+07,smart
95,388974,1.95778e+07,1.55242e+06,naive
195,388974,2.58466e+07,2.25641e+07,smart
96,414174,2.54221e+07,6.97953e+06,naive
196,414174,4.41360e+07,4.59642e+07,smart
97,441006,2.24937e+07,1.50352e+06,naive
197,441006,2.91246e+07,2.18115e+07,smart
98,469577,3.19790e+07,9.16354e+06,naive
198,469577,4.99998e+07,4.68259e+07,smart
